module chat-app

go 1.17

require (
	github.com/appleboy/gin-jwt v2.5.0+incompatible
	github.com/go-redis/redis v6.15.9+incompatible
	github.com/joho/godotenv v1.4.0
)

require (
	github.com/appleboy/gin-jwt/v2 v2.8.0 // indirect
	github.com/astaxie/beego v1.12.3 // indirect
	github.com/gin-contrib/sse v0.1.0 // indirect
	github.com/gin-gonic/gin v1.7.7 // indirect
	github.com/go-playground/locales v0.13.0 // indirect
	github.com/go-playground/universal-translator v0.17.0 // indirect
	github.com/go-playground/validator/v10 v10.4.1 // indirect
	github.com/golang-jwt/jwt/v4 v4.2.0 // indirect
	github.com/golang/protobuf v1.4.2 // indirect
	github.com/google/uuid v1.3.0
	github.com/hashicorp/golang-lru v0.5.4 // indirect
	github.com/jackc/chunkreader/v2 v2.0.1 // indirect
	github.com/jackc/pgconn v1.10.1 // indirect
	github.com/jackc/pgio v1.0.0 // indirect
	github.com/jackc/pgpassfile v1.0.0 // indirect
	github.com/jackc/pgproto3/v2 v2.2.0 // indirect
	github.com/jackc/pgservicefile v0.0.0-20200714003250-2b9c44734f2b // indirect
	github.com/jackc/pgtype v1.9.0 // indirect
	github.com/jackc/pgx/v4 v4.14.0 // indirect
	github.com/jinzhu/inflection v1.0.0 // indirect
	github.com/jinzhu/now v1.1.2 // indirect
	github.com/json-iterator/go v1.1.10 // indirect
	github.com/leodido/go-urn v1.2.0 // indirect
	github.com/lib/pq v1.10.4 // indirect
	github.com/mattn/go-isatty v0.0.12 // indirect
	github.com/modern-go/concurrent v0.0.0-20180306012644-bacd9c7ef1dd // indirect
	github.com/modern-go/reflect2 v1.0.1 // indirect
	github.com/pkg/errors v0.9.1 // indirect
	github.com/ugorji/go/codec v1.1.7 // indirect
	golang.org/x/crypto v0.0.0-20210921155107-089bfa567519 // indirect
	golang.org/x/sys v0.0.0-20210615035016-665e8c7367d1 // indirect
	golang.org/x/text v0.3.7 // indirect
	google.golang.org/protobuf v1.23.0 // indirect
	gopkg.in/dgrijalva/jwt-go.v3 v3.2.0 // indirect
	gopkg.in/yaml.v2 v2.2.8 // indirect
	gorm.io/driver/postgres v1.2.3 // indirect
	gorm.io/gorm v1.22.3 // indirect
)
